20

2
3
1
32
1
12
3
-4
-3
-2
-1

1
1
1
1
1
-1
-2
-3

1
2
-1
-1

3
4
6
-3
-2
-1

1
24
6
5
32
3
-2
1
6
2
-5

2
21
-1

2
21
2
21
-3
-3
-2
-1

2
2
2
2
2
-1
-1
-1
-2
-1

2
2
2
2
2
-1
-2
-1

2
2
2
2
2
-3
-2
-1
2
2
2
-1
-2
-1

5
3
17
4
-2
2
2
2
-1
-2
-1

3
8
2
68
2
5
2
-4
-5
-1
-2
-3

3
8
-2
2
2
2
-1
-2
-1

3
3
8
-2
2
2
2
-1

1
-1
3
8
-2
2
2
2
5
32
3
-2
1
-1
3
8
-2
2
2
2
-1

2
-1
3
-1
4
-1
5
5
5

3
8
2
68
2
-5
-1
-2
3

5
32
3
-2
1

2
-1
5
32
3
-2
1
3
3
-2

1
-1
2
-1
3
3
-2
