20

4

4
5
6

4
5
6
-2

4
5
6
-2
-2

4
5
6
-1

4
5
6
-1
-1

4
5
6
-3
-2
-1

4
-1
4
-1
4
-1
4
5
-1

123

122

10
10
10
10
10
10
10
10
10
10

10
20
30
40
-3
10
19

5
5
5
-2
5
5
-2
5
5
-2
5
5
-2
5
5
-2

5
5
5
-2
6
6
-2
7
7
-3
8
8
-4
9
9
-2

5
5
5
-2
6
6
-2
7
7
-2
8
8
-2
9
9
-2
10
10
-2
11
11
-2
12
12
-2

5
5
5
-2
6
6
-2
7
7
-2
8
8
-2
9
9
-2
10
10
-2
11
11
-2
12
12

1
1
1
1
1
1
1
1
1
1
-2
-3
-4
-5
-6

1
1
1
1
1
1
1
1
1
1
-2
-3
-4
-5
-6
-1
-2
-2

1
4
5
2
3
-2
5
-5
5
-4
8
-1

5
5
5
5
-2
3
1
-2
-2
5
